[gd_resource type="TileSet" load_steps=3 format=2]

[ext_resource path="res://assets/env_textures.png" type="Texture" id=1]

[sub_resource type="RectangleShape2D" id=1]
extents = Vector2( 8.0299, 8.06218 )

[resource]
0/name = "Ground01"
0/texture = ExtResource( 1 )
0/tex_offset = Vector2( 0, 0 )
0/modulate = Color( 1, 1, 1, 1 )
0/region = Rect2( 32, 48, 16, 16 )
0/tile_mode = 0
0/occluder_offset = Vector2( 8, 8 )
0/navigation_offset = Vector2( 8, 8 )
0/shape_offset = Vector2( 8, 8 )
0/shape_transform = Transform2D( 1, 0, 0, 1, 8, 8 )
0/shape = SubResource( 1 )
0/shape_one_way = false
0/shape_one_way_margin = 1.0
0/shapes = [ {
"autotile_coord": Vector2( 0, 0 ),
"one_way": false,
"one_way_margin": 1.0,
"shape": SubResource( 1 ),
"shape_transform": Transform2D( 1, 0, 0, 1, 8, 8 )
} ]
0/z_index = 0
1/name = "Ground02"
1/texture = ExtResource( 1 )
1/tex_offset = Vector2( 0, 0 )
1/modulate = Color( 1, 1, 1, 1 )
1/region = Rect2( 48, 48, 16, 16 )
1/tile_mode = 0
1/occluder_offset = Vector2( 8, 8 )
1/navigation_offset = Vector2( 8, 8 )
1/shape_offset = Vector2( 8, 8 )
1/shape_transform = Transform2D( 1, 0, 0, 1, 8, 8 )
1/shape = SubResource( 1 )
1/shape_one_way = false
1/shape_one_way_margin = 1.0
1/shapes = [ {
"autotile_coord": Vector2( 0, 0 ),
"one_way": false,
"one_way_margin": 1.0,
"shape": SubResource( 1 ),
"shape_transform": Transform2D( 1, 0, 0, 1, 8, 8 )
} ]
1/z_index = 0
2/name = "Ground03"
2/texture = ExtResource( 1 )
2/tex_offset = Vector2( 0, 0 )
2/modulate = Color( 1, 1, 1, 1 )
2/region = Rect2( 96, 16, 16, 16 )
2/tile_mode = 0
2/occluder_offset = Vector2( 8, 8 )
2/navigation_offset = Vector2( 8, 8 )
2/shape_offset = Vector2( 8, 8 )
2/shape_transform = Transform2D( 1, 0, 0, 1, 8, 8 )
2/shape = SubResource( 1 )
2/shape_one_way = false
2/shape_one_way_margin = 1.0
2/shapes = [ {
"autotile_coord": Vector2( 0, 0 ),
"one_way": false,
"one_way_margin": 1.0,
"shape": SubResource( 1 ),
"shape_transform": Transform2D( 1, 0, 0, 1, 8, 8 )
} ]
2/z_index = 0
3/name = "Ground04"
3/texture = ExtResource( 1 )
3/tex_offset = Vector2( 0, 0 )
3/modulate = Color( 1, 1, 1, 1 )
3/region = Rect2( 112, 208, 16, 16 )
3/tile_mode = 0
3/occluder_offset = Vector2( 8, 8 )
3/navigation_offset = Vector2( 8, 8 )
3/shape_offset = Vector2( 8, 8 )
3/shape_transform = Transform2D( 1, 0, 0, 1, 8, 8 )
3/shape = SubResource( 1 )
3/shape_one_way = false
3/shape_one_way_margin = 1.0
3/shapes = [ {
"autotile_coord": Vector2( 0, 0 ),
"one_way": false,
"one_way_margin": 1.0,
"shape": SubResource( 1 ),
"shape_transform": Transform2D( 1, 0, 0, 1, 8, 8 )
} ]
3/z_index = 0
4/name = "Ground05"
4/texture = ExtResource( 1 )
4/tex_offset = Vector2( 0, 0 )
4/modulate = Color( 1, 1, 1, 1 )
4/region = Rect2( 0, 208, 16, 16 )
4/tile_mode = 0
4/occluder_offset = Vector2( 8, 8 )
4/navigation_offset = Vector2( 8, 8 )
4/shape_offset = Vector2( 8, 8 )
4/shape_transform = Transform2D( 1, 0, 0, 1, 8, 8 )
4/shape = SubResource( 1 )
4/shape_one_way = false
4/shape_one_way_margin = 1.0
4/shapes = [ {
"autotile_coord": Vector2( 0, 0 ),
"one_way": false,
"one_way_margin": 1.0,
"shape": SubResource( 1 ),
"shape_transform": Transform2D( 1, 0, 0, 1, 8, 8 )
} ]
4/z_index = 0
5/name = "Ground06"
5/texture = ExtResource( 1 )
5/tex_offset = Vector2( 0, 0 )
5/modulate = Color( 1, 1, 1, 1 )
5/region = Rect2( 32, 240, 16, 16 )
5/tile_mode = 0
5/occluder_offset = Vector2( 8, 8 )
5/navigation_offset = Vector2( 8, 8 )
5/shape_offset = Vector2( 8, 8 )
5/shape_transform = Transform2D( 1, 0, 0, 1, 8, 8 )
5/shape = SubResource( 1 )
5/shape_one_way = false
5/shape_one_way_margin = 1.0
5/shapes = [ {
"autotile_coord": Vector2( 0, 0 ),
"one_way": false,
"one_way_margin": 1.0,
"shape": SubResource( 1 ),
"shape_transform": Transform2D( 1, 0, 0, 1, 8, 8 )
} ]
5/z_index = 0
6/name = "Ground07"
6/texture = ExtResource( 1 )
6/tex_offset = Vector2( 0, 0 )
6/modulate = Color( 1, 1, 1, 1 )
6/region = Rect2( 48, 272, 16, 16 )
6/tile_mode = 0
6/occluder_offset = Vector2( 8, 8 )
6/navigation_offset = Vector2( 8, 8 )
6/shape_offset = Vector2( 8, 8 )
6/shape_transform = Transform2D( 1, 0, 0, 1, 8, 8 )
6/shape = SubResource( 1 )
6/shape_one_way = false
6/shape_one_way_margin = 1.0
6/shapes = [ {
"autotile_coord": Vector2( 0, 0 ),
"one_way": false,
"one_way_margin": 1.0,
"shape": SubResource( 1 ),
"shape_transform": Transform2D( 1, 0, 0, 1, 8, 8 )
} ]
6/z_index = 0
7/name = "Ground08"
7/texture = ExtResource( 1 )
7/tex_offset = Vector2( 0, 0 )
7/modulate = Color( 1, 1, 1, 1 )
7/region = Rect2( 64, 192, 16, 16 )
7/tile_mode = 0
7/occluder_offset = Vector2( 8, 8 )
7/navigation_offset = Vector2( 8, 8 )
7/shape_offset = Vector2( 8, 8 )
7/shape_transform = Transform2D( 1, 0, 0, 1, 8, 8 )
7/shape = SubResource( 1 )
7/shape_one_way = false
7/shape_one_way_margin = 1.0
7/shapes = [ {
"autotile_coord": Vector2( 0, 0 ),
"one_way": false,
"one_way_margin": 1.0,
"shape": SubResource( 1 ),
"shape_transform": Transform2D( 1, 0, 0, 1, 8, 8 )
} ]
7/z_index = 0
8/name = "Ground09"
8/texture = ExtResource( 1 )
8/tex_offset = Vector2( 0, 0 )
8/modulate = Color( 1, 1, 1, 1 )
8/region = Rect2( 32, 272, 16, 16 )
8/tile_mode = 0
8/occluder_offset = Vector2( 8, 8 )
8/navigation_offset = Vector2( 8, 8 )
8/shape_offset = Vector2( 8, 8 )
8/shape_transform = Transform2D( 1, 0, 0, 1, 8, 8 )
8/shape = SubResource( 1 )
8/shape_one_way = false
8/shape_one_way_margin = 1.0
8/shapes = [ {
"autotile_coord": Vector2( 0, 0 ),
"one_way": false,
"one_way_margin": 1.0,
"shape": SubResource( 1 ),
"shape_transform": Transform2D( 1, 0, 0, 1, 8, 8 )
} ]
8/z_index = 0
9/name = "Ground10"
9/texture = ExtResource( 1 )
9/tex_offset = Vector2( 0, 0 )
9/modulate = Color( 1, 1, 1, 1 )
9/region = Rect2( 64, 224, 16, 16 )
9/tile_mode = 0
9/occluder_offset = Vector2( 8, 8 )
9/navigation_offset = Vector2( 8, 8 )
9/shape_offset = Vector2( 8, 8 )
9/shape_transform = Transform2D( 1, 0, 0, 1, 8, 8 )
9/shape = SubResource( 1 )
9/shape_one_way = false
9/shape_one_way_margin = 1.0
9/shapes = [ {
"autotile_coord": Vector2( 0, 0 ),
"one_way": false,
"one_way_margin": 1.0,
"shape": SubResource( 1 ),
"shape_transform": Transform2D( 1, 0, 0, 1, 8, 8 )
} ]
9/z_index = 0
10/name = "Ground11"
10/texture = ExtResource( 1 )
10/tex_offset = Vector2( 0, 0 )
10/modulate = Color( 1, 1, 1, 1 )
10/region = Rect2( 0, 240, 16, 16 )
10/tile_mode = 0
10/occluder_offset = Vector2( 8, 8 )
10/navigation_offset = Vector2( 8, 8 )
10/shape_offset = Vector2( 8, 8 )
10/shape_transform = Transform2D( 1, 0, 0, 1, 8, 8 )
10/shape = SubResource( 1 )
10/shape_one_way = false
10/shape_one_way_margin = 1.0
10/shapes = [ {
"autotile_coord": Vector2( 0, 0 ),
"one_way": false,
"one_way_margin": 1.0,
"shape": SubResource( 1 ),
"shape_transform": Transform2D( 1, 0, 0, 1, 8, 8 )
} ]
10/z_index = 0
11/name = "Ground12"
11/texture = ExtResource( 1 )
11/tex_offset = Vector2( 0, 0 )
11/modulate = Color( 1, 1, 1, 1 )
11/region = Rect2( 96, 208, 16, 16 )
11/tile_mode = 0
11/occluder_offset = Vector2( 8, 8 )
11/navigation_offset = Vector2( 8, 8 )
11/shape_offset = Vector2( 8, 8 )
11/shape_transform = Transform2D( 1, 0, 0, 1, 8, 8 )
11/shape = SubResource( 1 )
11/shape_one_way = false
11/shape_one_way_margin = 1.0
11/shapes = [ {
"autotile_coord": Vector2( 0, 0 ),
"one_way": false,
"one_way_margin": 1.0,
"shape": SubResource( 1 ),
"shape_transform": Transform2D( 1, 0, 0, 1, 8, 8 )
} ]
11/z_index = 0
