[gd_scene load_steps=14 format=2]

[ext_resource path="res://MonsterDude.tscn" type="PackedScene" id=1]
[ext_resource path="res://Intelligentmonster.tscn" type="PackedScene" id=2]
[ext_resource path="res://assets/frames/knight_f_run_anim_f1.png" type="Texture" id=3]
[ext_resource path="res://Player.gd" type="Script" id=6]
[ext_resource path="res://ground_tileset.tres" type="TileSet" id=8]
[ext_resource path="res://assets/frames/knight_f_idle_anim_f1.png" type="Texture" id=9]
[ext_resource path="res://assets/frames/knight_f_idle_anim_f2.png" type="Texture" id=10]
[ext_resource path="res://assets/frames/knight_f_idle_anim_f3.png" type="Texture" id=11]
[ext_resource path="res://assets/frames/knight_f_run_anim_f2.png" type="Texture" id=12]
[ext_resource path="res://assets/frames/knight_f_run_anim_f3.png" type="Texture" id=13]
[ext_resource path="res://assets/frames/knight_f_run_anim_f0.png" type="Texture" id=14]

[sub_resource type="SpriteFrames" id=1]
animations = [ {
"frames": [ ExtResource( 9 ), ExtResource( 10 ), ExtResource( 11 ) ],
"loop": true,
"name": "idle",
"speed": 4.0
}, {
"frames": [ ExtResource( 14 ), ExtResource( 3 ), ExtResource( 12 ), ExtResource( 13 ) ],
"loop": true,
"name": "move",
"speed": 8.0
} ]

[sub_resource type="RectangleShape2D" id=2]
extents = Vector2( 7.03387, 10 )

[node name="MyRoot" type="Node"]

[node name="Instructions" type="Label" parent="."]
margin_left = 144.0
margin_top = 16.0
margin_right = 201.0
margin_bottom = 64.0
text = "Controls
A: Left
D: Right "
__meta__ = {
"_edit_use_anchors_": false
}

[node name="MainCamera" type="Camera2D" parent="."]
position = Vector2( 69.9811, 52.7928 )
current = true
smoothing_enabled = true
smoothing_speed = 1.0
offset_h = 0.74
offset_v = 0.74

[node name="Player" type="KinematicBody2D" parent="."]
position = Vector2( 64, 40 )
script = ExtResource( 6 )
__meta__ = {
"_edit_group_": true
}

[node name="PlayerSprite" type="AnimatedSprite" parent="Player"]
frames = SubResource( 1 )
animation = "idle"

[node name="Shape" type="CollisionShape2D" parent="Player"]
position = Vector2( 0, 4 )
shape = SubResource( 2 )

[node name="TileMap" type="TileMap" parent="."]
position = Vector2( -1, -5 )
tile_set = ExtResource( 8 )
cell_size = Vector2( 16, 16 )
format = 1
tile_data = PoolIntArray( -3211208, 0, 0, -3211207, 0, 0, -3211197, 0, 0, -3211196, 0, 0, -3145670, 0, 0, -3145669, 0, 0, -3145668, 0, 0, -3145667, 0, 0, -3145666, 0, 0, -3145665, 0, 0, -3145664, 0, 0, -3145663, 0, 0, -3145662, 0, 0, -3080146, 0, 0, -3080145, 0, 0, -3014611, 0, 0, -3014610, 0, 0, -3014609, 0, 0, -3014608, 0, 0, -3014607, 0, 0, -2949071, 0, 0, -2949070, 0, 0, -2949069, 0, 0, -2949068, 0, 0, -2949067, 0, 0, -2949066, 0, 0, -2949065, 0, 0, -2686921, 0, 0, -2686920, 0, 0, -2686919, 0, 0, -2686918, 0, 0, -2686917, 0, 0, -2686916, 0, 0, -2686915, 0, 0, -2686911, 0, 0, -2686910, 0, 0, -2621386, 0, 0, -2621385, 0, 0, -2621379, 0, 0, -2621378, 0, 0, -2621377, 0, 0, -2621376, 0, 0, -2621375, 0, 0, -2555865, 0, 0, -2555863, 0, 0, -2555862, 0, 0, -2555861, 0, 0, -2555860, 0, 0, -2555859, 0, 0, -2555858, 0, 0, -2555857, 0, 0, -2555856, 0, 0, -2490329, 0, 0, -2490328, 0, 0, -2490320, 0, 0, -2424783, 0, 0, -2359244, 0, 0, -2359243, 0, 0, -2359242, 0, 0, -2359241, 0, 0, -2293709, 0, 0, -2293708, 0, 0, -2293705, 0, 0, -2293704, 0, 0, -2293703, 0, 0, -2228186, 0, 0, -2228177, 0, 0, -2162649, 0, 0, -2162648, 0, 0, -2162644, 0, 0, -2162643, 0, 0, -2162642, 0, 0, -2162641, 0, 0, -2162628, 0, 0, -2162627, 0, 0, -2162626, 0, 0, -2162625, 0, 0, -2097112, 0, 0, -2097111, 0, 0, -2097110, 0, 0, -2097109, 0, 0, -2097108, 0, 0, -2097092, 0, 0, -2097088, 0, 0, -2097087, 0, 0, -2097086, 0, 0, -2031583, 0, 0, -2031556, 0, 0, -1966047, 0, 0, -1966046, 0, 0, -1966027, 0, 0, -1966026, 0, 0, -1966025, 0, 0, -1966024, 0, 0, -1966023, 0, 0, -1966022, 0, 0, -1966021, 0, 0, -1966020, 0, 0, -1900510, 0, 0, -1900493, 0, 0, -1900492, 0, 0, -1900491, 0, 0, -1834958, 0, 0, -1834957, 0, 0, -1769433, 0, 0, -1703902, 0, 0, -1703901, 0, 0, -1703900, 0, 0, -1703899, 0, 0, -1703898, 0, 0, -1703897, 0, 0, -1703892, 0, 0, -1703891, 0, 0, -1703890, 0, 0, -1703889, 0, 0, -1703888, 0, 0, -1703886, 0, 0, -1638367, 0, 0, -1638366, 0, 0, -1638352, 0, 0, -1638351, 0, 0, -1638350, 0, 0, -1572864, 536870923, 0, -1507328, 536870923, 0, -1507298, 0, 0, -1441792, 536870923, 0, -1441761, 0, 0, -1441751, 7, 0, -1441745, 6, 0, -1441744, 6, 0, -1441743, 6, 0, -1441742, 6, 0, -1441741, 6, 0, -1441740, 1, 0, -1441739, 6, 0, -1441738, 6, 0, -1441737, 6, 0, -1441736, 6, 0, -1441735, 6, 0, -1441734, 6, 0, -1441733, 6, 0, -1376256, 536870923, 0, -1376225, 0, 0, -1376224, 0, 0, -1376215, 8, 0, -1376214, 6, 0, -1376213, 6, 0, -1376212, 6, 0, -1376211, 6, 0, -1376210, 6, 0, -1376209, 6, 0, -1376198, 6, 0, -1376197, 6, 0, -1310720, 536870923, 0, -1310682, 6, 0, -1310681, 6, 0, -1310680, 6, 0, -1310663, 6, 0, -1310662, 6, 0, -1245184, 536870923, 0, -1245127, 6, 0, -1179648, 536870923, 0, -1179615, 6, 0, -1179614, 6, 0, -1179613, 6, 0, -1179591, 6, 0, -1179590, 6, 0, -1179589, 6, 0, -1179588, 6, 0, -1179587, 6, 0, -1114112, 536870923, 0, -1114051, 6, 0, -1048576, 536870923, 0, -1048538, 6, 0, -1048537, 6, 0, -1048536, 6, 0, -1048535, 6, 0, -1048515, 6, 0, -983040, 536870923, 0, -983011, 6, 0, -983010, 6, 0, -983009, 6, 0, -983008, 6, 0, -983007, 6, 0, -983006, 6, 0, -982991, 6, 0, -982990, 6, 0, -982989, 6, 0, -982988, 6, 0, -982978, 6, 0, -917504, 536870923, 0, -917470, 6, 0, -917469, 6, 0, -917452, 6, 0, -917442, 6, 0, -917441, 6, 0, -917415, 6, 0, -851968, 536870923, 0, -851916, 6, 0, -851912, 6, 0, -851905, 6, 0, -851904, 6, 0, -851903, 6, 0, -851902, 6, 0, -851881, 6, 0, -851879, 11, 0, -786432, 536870923, 0, -786393, 6, 0, -786392, 6, 0, -786391, 1, 0, -786390, 6, 0, -786389, 6, 0, -786388, 6, 0, -786381, 6, 0, -786377, 6, 0, -786376, 6, 0, -786375, 8, 0, -786366, 6, 0, -786345, 6, 0, -786343, 11, 0, -720896, 536870923, 0, -720858, 6, 0, -720852, 6, 0, -720845, 6, 0, -720839, 8, 0, -720838, 8, 0, -720830, 6, 0, -720809, 6, 0, -720807, 11, 0, -655360, 536870923, 0, -655309, 6, 0, -655308, 6, 0, -655293, 6, 0, -655292, 6, 0, -655291, 6, 0, -655290, 6, 0, -655271, 11, 0, -589824, 536870923, 0, -589778, 6, 0, -589777, 6, 0, -589776, 6, 0, -589775, 6, 0, -589771, 6, 0, -589754, 6, 0, -589753, 6, 0, -589735, 11, 0, -524288, 536870923, 0, -524258, 6, 0, -524257, 6, 0, -524256, 6, 0, -524255, 6, 0, -524254, 6, 0, -524253, 6, 0, -524246, 6, 0, -524245, 1, 0, -524244, 6, 0, -524243, 6, 0, -524242, 6, 0, -524239, 6, 0, -524234, 6, 0, -524233, 6, 0, -524230, 6, 0, -524229, 6, 0, -524227, 6, 0, -524226, 6, 0, -524225, 6, 0, -524224, 6, 0, -524223, 6, 0, -524217, 6, 0, -524199, 11, 0, -458752, 536870923, 0, -458703, 6, 0, -458693, 6, 0, -458692, 6, 0, -458691, 6, 0, -458686, 6, 0, -458685, 6, 0, -458681, 6, 0, -458680, 6, 0, -458663, 11, 0, -393216, 536870923, 0, -393167, 6, 0, -393164, 6, 0, -393163, 6, 0, -393162, 6, 0, -393161, 6, 0, -393160, 6, 0, -393144, 6, 0, -393143, 6, 0, -393127, 11, 0, -327680, 536870923, 0, -327642, 6, 0, -327641, 6, 0, -327640, 6, 0, -327639, 6, 0, -327638, 6, 0, -327637, 6, 0, -327636, 6, 0, -327635, 6, 0, -327628, 6, 0, -327627, 6, 0, -327626, 6, 0, -327625, 1, 0, -327624, 6, 0, -327623, 6, 0, -327622, 6, 0, -327607, 6, 0, -327606, 6, 0, -327605, 6, 0, -327604, 6, 0, -327603, 6, 0, -327602, 6, 0, -327591, 11, 0, -262144, 536870923, 0, -262076, 6, 0, -262075, 6, 0, -262055, 11, 0, -196608, 536870923, 0, -196539, 6, 0, -196519, 11, 0, -131072, 536870923, 0, -131065, 8, 0, -131064, 8, 0, -131063, 8, 0, -131062, 8, 0, -131039, 6, 0, -131038, 6, 0, -131037, 6, 0, -131036, 6, 0, -131035, 6, 0, -131034, 6, 0, -131033, 8, 0, -131002, 6, 0, -131001, 6, 0, -130983, 11, 0, -65536, 536870923, 0, -65477, 6, 0, -65476, 6, 0, -65475, 6, 0, -65474, 6, 0, -65465, 6, 0, -65464, 6, 0, -65447, 11, 0, 0, 536870923, 0, 1, 6, 0, 2, 6, 0, 14, 6, 0, 15, 6, 0, 16, 6, 0, 17, 6, 0, 18, 6, 0, 19, 6, 0, 20, 6, 0, 46, 6, 0, 47, 6, 0, 48, 1, 0, 49, 6, 0, 50, 6, 0, 51, 6, 0, 52, 6, 0, 53, 6, 0, 54, 6, 0, 76, 6, 0, 77, 6, 0, 78, 6, 0, 79, 6, 0, 80, 6, 0, 81, 10, 0, 82, 6, 0, 89, 11, 0, 90, 6, 0, 65536, 536870923, 0, 65554, 1, 0, 65555, 6, 0, 65556, 6, 0, 65582, 6, 0, 65583, 6, 0, 65584, 6, 0, 65585, 6, 0, 65586, 6, 0, 65587, 6, 0, 65588, 1, 0, 65589, 1, 0, 65590, 6, 0, 65612, 6, 0, 65613, 1, 0, 65614, 6, 0, 65615, 6, 0, 65616, 6, 0, 65617, 6, 0, 65618, 6, 0, 65619, 6, 0, 65620, 6, 0, 65621, 6, 0, 65622, 6, 0, 65625, 11, 0, 65626, 6, 0, 131072, 536870923, 0, 131098, 6, 0, 131099, 6, 0, 131100, 6, 0, 131101, 6, 0, 131102, 6, 0, 131103, 6, 0, 131104, 6, 0, 131105, 6, 0, 131106, 6, 0, 131107, 6, 0, 131108, 6, 0, 131109, 6, 0, 131110, 6, 0, 131111, 6, 0, 131123, 6, 0, 131124, 6, 0, 131125, 6, 0, 131126, 6, 0, 131148, 6, 0, 131149, 6, 0, 131150, 6, 0, 131151, 6, 0, 131152, 6, 0, 131153, 6, 0, 131154, 1, 0, 131155, 6, 0, 131156, 6, 0, 131157, 1, 0, 131158, 6, 0, 131161, 11, 0, 196608, 536870923, 0, 196632, 6, 0, 196633, 6, 0, 196634, 6, 0, 196671, 6, 0, 196672, 6, 0, 196673, 6, 0, 196697, 11, 0, 262144, 536870923, 0, 262147, -1073741819, 0, 262148, -536870907, 0, 262149, 6, 0, 262209, 6, 0, 262210, 6, 0, 262211, 6, 0, 262212, 6, 0, 262213, 6, 0, 262214, 6, 0, 262233, 11, 0, 327680, 536870923, 0, 327733, 6, 0, 327750, 6, 0, 327751, 6, 0, 327752, 6, 0, 327753, 6, 0, 327754, 6, 0, 327769, 11, 0, 393216, 536870923, 0, 393238, 6, 0, 393239, 6, 0, 393240, 6, 0, 393241, 6, 0, 393242, 6, 0, 393243, 6, 0, 393244, 6, 0, 393301, 6, 0, 393302, 6, 0, 393303, 6, 0, 393305, 11, 0, 458752, 536870923, 0, 458765, 6, 0, 458766, 6, 0, 458767, 6, 0, 458768, 6, 0, 458774, 1, 0, 458775, 6, 0, 458776, 6, 0, 458777, 6, 0, 458778, 6, 0, 458779, 6, 0, 458780, 6, 0, 458834, 6, 0, 458835, 6, 0, 458836, 6, 0, 458837, 6, 0, 458841, 11, 0, 524288, 536870923, 0, 524308, 6, 0, 524309, 6, 0, 524310, 1, 0, 524311, 6, 0, 524329, 0, 0, 524347, 0, 0, 524348, 0, 0, 524349, 0, 0, 524360, 6, 0, 524361, 6, 0, 524362, 6, 0, 524363, 6, 0, 524373, 6, 0, 524377, 11, 0, 589824, 536870923, 0, 589830, 6, 0, 589831, 6, 0, 589832, 6, 0, 589833, 6, 0, 589834, 6, 0, 589844, 6, 0, 589845, 1, 0, 589846, 6, 0, 589847, 6, 0, 589865, 0, 0, 589885, 0, 0, 589899, 6, 0, 589904, 6, 0, 589905, 6, 0, 589906, 6, 0, 589907, 6, 0, 589908, 6, 0, 589909, 6, 0, 589913, 11, 0, 655360, 536870923, 0, 655366, 6, 0, 655367, 1, 0, 655368, 6, 0, 655369, 1, 0, 655370, 6, 0, 655380, 6, 0, 655381, 6, 0, 655401, 0, 0, 655421, 0, 0, 655449, 11, 0, 720896, 536870923, 0, 720902, 6, 0, 720903, 1, 0, 720904, 6, 0, 720905, 6, 0, 720906, 6, 0, 720916, 6, 0, 720917, 6, 0, 720937, 0, 0, 720957, 0, 0, 720967, 6, 0, 720968, 6, 0, 720969, 6, 0, 720985, 11, 0, 786432, 536870923, 0, 786433, 6, 0, 786434, 6, 0, 786435, 6, 0, 786436, 6, 0, 786437, 6, 0, 786438, 6, 0, 786439, 6, 0, 786440, 6, 0, 786441, 6, 0, 786442, 6, 0, 786443, 6, 0, 786444, 6, 0, 786445, 6, 0, 786446, 6, 0, 786447, 6, 0, 786448, 6, 0, 786449, 6, 0, 786450, 6, 0, 786451, 6, 0, 786452, 6, 0, 786453, 6, 0, 786454, 6, 0, 786455, 6, 0, 786456, 6, 0, 786457, 6, 0, 786458, 6, 0, 786459, 6, 0, 786460, 6, 0, 786461, 6, 0, 786462, 6, 0, 786463, 6, 0, 786464, 6, 0, 786465, 6, 0, 786466, 6, 0, 786467, 6, 0, 786468, 6, 0, 786469, 6, 0, 786470, 6, 0, 786471, 6, 0, 786472, 6, 0, 786473, 6, 0, 786474, 6, 0, 786475, 6, 0, 786476, 6, 0, 786477, 6, 0, 786478, 6, 0, 786479, 6, 0, 786480, 6, 0, 786481, 6, 0, 786482, 6, 0, 786483, 6, 0, 786484, 6, 0, 786485, 6, 0, 786486, 6, 0, 786487, 6, 0, 786488, 6, 0, 786489, 6, 0, 786490, 6, 0, 786491, 6, 0, 786492, 6, 0, 786493, 6, 0, 786494, 1, 0, 786495, 6, 0, 786496, 6, 0, 786497, 6, 0, 786498, 6, 0, 786499, 6, 0, 786500, 6, 0, 786501, 6, 0, 786502, 6, 0, 786503, 6, 0, 786504, 6, 0, 786505, 6, 0, 786506, 6, 0, 786507, 6, 0, 786508, 6, 0, 786509, 6, 0, 786510, 6, 0, 786511, 6, 0, 786512, 6, 0, 786513, 6, 0, 786514, 6, 0, 786515, 6, 0, 786516, 6, 0, 786517, 6, 0, 786518, 6, 0, 786519, 6, 0, 786520, 6, 0, 786521, 6, 0 )

[node name="MonsterDude" parent="." instance=ExtResource( 1 )]
position = Vector2( 232, 88 )
collision_layer = 1
collision_mask = 1

[node name="Intelligentmonster" parent="." instance=ExtResource( 2 )]
position = Vector2( 32, 168 )

[node name="Intelligentmonster2" parent="." instance=ExtResource( 2 )]
position = Vector2( 240, -16 )
